Ramen ratings
…
ramen_ratings %>% 
  count(brand, sort=T) 

## # A tibble: 456 x 2
##    brand               n
##    <chr>           <int>
##  1 Nissin            443
##  2 Nongshim          110
##  3 Maruchan          106
##  4 Myojo              90
##  5 Samyang Foods      82
##  6 Mama               71
##  7 Paldo              71
##  8 Indomie            56
##  9 Ottogi             48
## 10 Sapporo Ichiban    44
## #  with 446 more rows

ramen_ratings %>% 
  count(variety, sort=T)

## # A tibble: 2,971 x 2
##    variety                           n
##    <chr>                         <int>
##  1 Beef                              7
##  2 Chicken                           7
##  3 Miso Ramen                        7
##  4 Yakisoba                          7
##  5 Artificial Chicken                6
##  6 Vegetable                         6
##  7 Artificial Beef Flavor            4
##  8 Artificial Spicy Beef             4
##  9 Chicken Flavor                    4
## 10 Curry Flavour Instant Noodles     4
## #  with 2,961 more rows
…
ramen_ratings %>% 
  count(country, sort=T)

## # A tibble: 44 x 2
##    country           n
##    <chr>         <int>
##  1 Japan           532
##  2 United States   382
##  3 South Korea     357
##  4 Taiwan          330
##  5 China           207
##  6 Thailand        205
##  7 Malaysia        182
##  8 Hong Kong       155
##  9 Indonesia       150
## 10 Singapore       134
## #  with 34 more rows
…
ramen_ratings %>% 
  count(variety, sort=T)

## # A tibble: 2,970 x 2
##    variety                           n
##    <chr>                         <int>
##  1 Beef                              7
##  2 Chicken                           7
##  3 Miso Ramen                        7
##  4 Yakisoba                          7
##  5 Artificial Chicken                6
##  6 Vegetable                         6
##  7 Artificial Beef Flavor            4
##  8 Artificial Spicy Beef             4
##  9 Chicken Flavor                    4
## 10 Curry Flavour Instant Noodles     4
## #  with 2,960 more rows
…
ramen_ratings %>% 
  group_by(country, brand) %>% 
  summarise(n())

## # A tibble: 42 x 3
## # Groups:   country [11]
##    country   brand    `n()`
##    <fct>     <fct>    <int>
##  1 China     Nissin       3
##  2 China     Nongshim     9
##  3 China     Other      195
##  4 Hong Kong Nissin      79
##  5 Hong Kong Other       76
##  6 Indonesia Indomie     54
##  7 Indonesia Nissin       3
##  8 Indonesia Other       93
##  9 Japan     Maruchan    48
## 10 Japan     Myojo       63
## #  with 32 more rows
…
Lexical analysis of ramen varieties

rr_u <- ramen_ratings %>% 
  unnest_tokens(word, variety) %>% 
  anti_join(get_stopwords()) %>% 
  mutate(word=fct_lump(word, n = 30))

## Joining, by = "word"

rr_u %>% 
  count(word, sort=T)

## # A tibble: 31 x 2
##    word        n
##    <fct>   <int>
##  1 Other    7346
##  2 noodles   797
##  3 noodle    660
##  4 instant   511
##  5 ramen     492
##  6 flavour   459
##  7 flavor    407
##  8 chicken   377
##  9 spicy     351
## 10 beef      276
## #  with 21 more rows
…
